-
1,2,5; 
1,3,13; 
1,4,11; 
1,5,4; 
1,6,8; 
1,7,1; 
1,8,4; 
1,9,1; 
1,10,13; 
1,11,2; 
2,3,8; 
2,4,12; 
2,5,2; 
2,6,14; 
2,7,1; 
2,8,11; 
2,9,7; 
2,10,14; 
2,11,12; 
3,4,3; 
3,5,4; 
3,6,1; 
3,7,8; 
3,8,5; 
3,9,12; 
3,10,12; 
3,11,13; 
4,5,1; 
4,6,7; 
4,7,2; 
4,8,9; 
4,9,8; 
4,10,13; 
4,11,10; 
5,6,13; 
5,7,4; 
5,8,10; 
5,9,5; 
5,10,10; 
5,11,6; 
6,7,12; 
6,8,13; 
6,9,10; 
6,10,6; 
6,11,14; 
7,8,6; 
7,9,6; 
7,10,11; 
7,11,3; 
8,9,3; 
8,10,6; 
8,11,5; 
9,10,3; 
9,11,1; 
10,11,8; 